<svg xmlns="http://www.w3.org/2000/svg" width="183.52" height="114.888" viewBox="0 0 183.52 114.888">
  <path id="Path_135" data-name="Path 135" d="M6192.422,1549.948s46.38-52.531,68.995,44.151,113.214,35.224,113.214,35.224" transform="translate(-6191.672 -1534.697)" fill="none" stroke="#fbbf2c" stroke-width="2" stroke-dasharray="6 8"/>
</svg>
