<svg xmlns="http://www.w3.org/2000/svg" xmlns:xlink="http://www.w3.org/1999/xlink" width="79" height="79" viewBox="0 0 79 79">
  <defs>
    <filter id="Ellipse_62" x="0" y="0" width="79" height="79" filterUnits="userSpaceOnUse">
      <feOffset dy="3" input="SourceAlpha"/>
      <feGaussianBlur stdDeviation="3" result="blur"/>
      <feFlood flood-opacity="0.161"/>
      <feComposite operator="in" in2="blur"/>
      <feComposite in="SourceGraphic"/>
    </filter>
  </defs>
  <g id="Component_3_1" data-name="Component 3 – 1" transform="translate(9 6)">
    <g transform="matrix(1, 0, 0, 1, -9, -6)" filter="url(#Ellipse_62)">
      <g id="Ellipse_62-2" data-name="Ellipse 62" transform="translate(9 6)" fill="#fbbf2c" stroke="#fff" stroke-width="2">
        <circle cx="30.5" cy="30.5" r="30.5" stroke="none"/>
        <circle cx="30.5" cy="30.5" r="29.5" fill="none"/>
      </g>
    </g>
    <text id="_1._" data-name="1. " transform="translate(8 8)" fill="#fff" font-size="32" font-family="Khula-ExtraBold, Khula" font-weight="800"><tspan x="9.452" y="32">1. </tspan></text>
  </g>
</svg>
